%YAML 1.1
%TAG !u! tag:unity3d.com,2011:
--- !u!114 &11400000
MonoBehaviour:
  m_ObjectHideFlags: 0
  m_CorrespondingSourceObject: {fileID: 0}
  m_PrefabInstance: {fileID: 0}
  m_PrefabAsset: {fileID: 0}
  m_GameObject: {fileID: 0}
  m_Enabled: 1
  m_EditorHideFlags: 0
  m_Script: {fileID: 11500000, guid: 05afd142c2754e95af5861804a5e2f60, type: 3}
  m_Name: SpeedItemUsageSFX
  m_EditorClassIdentifier: 
  _clips:
  - {fileID: 8300000, guid: 74ee5ab3341b9a24381b6cea85fe33c9, type: 3}
  _randomizeVolume: 0
  _volume: 0.14
  _minVolume: 0
  _maxVolume: 0
  _randomizePitch: 1
  _pitch: 9
  _minPitch: 9
  _maxPitch: 10
