%YAML 1.1
%TAG !u! tag:unity3d.com,2011:
--- !u!114 &11400000
MonoBehaviour:
  m_ObjectHideFlags: 0
  m_CorrespondingSourceObject: {fileID: 0}
  m_PrefabInstance: {fileID: 0}
  m_PrefabAsset: {fileID: 0}
  m_GameObject: {fileID: 0}
  m_Enabled: 1
  m_EditorHideFlags: 0
  m_Script: {fileID: 11500000, guid: 05afd142c2754e95af5861804a5e2f60, type: 3}
  m_Name: SwordUsageSFX
  m_EditorClassIdentifier: 
  _clips:
  - {fileID: 8300000, guid: b3656088af6e1fd47bffa43a3a5dac4d, type: 3}
  _randomizeVolume: 1
  _volume: 0.14
  _minVolume: 0.12
  _maxVolume: 0.15
  _randomizePitch: 1
  _pitch: 1
  _minPitch: 1
  _maxPitch: 1.3
