%YAML 1.1
%TAG !u! tag:unity3d.com,2011:
--- !u!114 &11400000
MonoBehaviour:
  m_ObjectHideFlags: 0
  m_CorrespondingSourceObject: {fileID: 0}
  m_PrefabInstance: {fileID: 0}
  m_PrefabAsset: {fileID: 0}
  m_GameObject: {fileID: 0}
  m_Enabled: 1
  m_EditorHideFlags: 0
  m_Script: {fileID: 11500000, guid: 494a21e1ab044eab9e4e51142adaba5d, type: 3}
  m_Name: LargeHealthPotion
  m_EditorClassIdentifier: 
  _itemName: Large Health Potion
  _description: Restores a large amount of HP
  _itemSprite: {fileID: 21300000, guid: e52ea25af699fd445b7046374f81a5b9, type: 3}
  _consumeUponUse: 1
  _isUnique: 0
  _itemMesh: {fileID: 10207, guid: 0000000000000000e000000000000000, type: 0}
  _itemType: {fileID: 11400000, guid: 54d10352911fe2a44a1a4278ed71a578, type: 2}
  _useSound: {fileID: 11400000, guid: 8e19bf5e8fe6e384298422286ed5a7fc, type: 2}
  _restoredHealth: 5
