%YAML 1.1
%TAG !u! tag:unity3d.com,2011:
--- !u!114 &11400000
MonoBehaviour:
  m_ObjectHideFlags: 0
  m_CorrespondingSourceObject: {fileID: 0}
  m_PrefabInstance: {fileID: 0}
  m_PrefabAsset: {fileID: 0}
  m_GameObject: {fileID: 0}
  m_Enabled: 1
  m_EditorHideFlags: 0
  m_Script: {fileID: 11500000, guid: 494a21e1ab044eab9e4e51142adaba5d, type: 3}
  m_Name: ManaPotion
  m_EditorClassIdentifier: 
  _itemName: Mana Potion
  _description: Restores a small amount of MP
  _itemSprite: {fileID: 21300000, guid: 6592b916f86b19e428db6f6847c7b6dd, type: 3}
  _consumeUponUse: 1
  _isUnique: 0
  _itemMesh: {fileID: 10207, guid: 0000000000000000e000000000000000, type: 0}
  _itemType: {fileID: 11400000, guid: 54d10352911fe2a44a1a4278ed71a578, type: 2}
  _useSound: {fileID: 11400000, guid: 34e41cc944b1e7348995d3f7e84cf66f, type: 2}
  _restoredHealth: 5
