%YAML 1.1
%TAG !u! tag:unity3d.com,2011:
--- !u!114 &11400000
MonoBehaviour:
  m_ObjectHideFlags: 0
  m_CorrespondingSourceObject: {fileID: 0}
  m_PrefabInstance: {fileID: 0}
  m_PrefabAsset: {fileID: 0}
  m_GameObject: {fileID: 0}
  m_Enabled: 1
  m_EditorHideFlags: 0
  m_Script: {fileID: 11500000, guid: 807bd0318bc34fbdb9e0760a95c19304, type: 3}
  m_Name: Axe
  m_EditorClassIdentifier: 
  _itemName: Axe
  _description: A battle axe for combat
  _itemSprite: {fileID: 21300000, guid: 172774604c1bee84185a69041576525b, type: 3}
  _consumeUponUse: 1
  _isUnique: 0
  _itemMesh: {fileID: 10202, guid: 0000000000000000e000000000000000, type: 0}
  _itemType: {fileID: 11400000, guid: 982830630545a3749846dafe305e1d40, type: 2}
  _useSound: {fileID: 11400000, guid: 9335e59f54c5cb247a007fcbfe13b21e, type: 2}
  _damage: 7.5
